<?xml version="1.0" standalone="no"?>
<!DOCTYPE svg PUBLIC "-//W3C//DTD SVG 1.1//EN" "http://www.w3.org/Graphics/SVG/1.1/DTD/svg11.dtd" >
<svg xmlns="http://www.w3.org/2000/svg">
<metadata>Generated by IcoMoon</metadata>
<defs>
<font id="icomoon" horiz-adv-x="1024">
<font-face units-per-em="1024" ascent="960" descent="-64" />
<missing-glyph horiz-adv-x="1024" />
<glyph unicode="&#x20;" d="" horiz-adv-x="512" />
<glyph unicode="&#xe070;" d="M0 469.334l1024 469.333-469.333-1024-128 426.667zM571.333 156l279.333 609.333-609.333-279.333 254-76z" />
<glyph unicode="&#xe072;" d="M682.667 725.334l341.333 213.333v-810.667l-341.333-213.333-341.333 213.333-341.333-213.333v810.667l341.333 213.333zM298.667 202v609l-213.333-133.333v-609zM640 651.334l-256 160.333v-609.667l256-160v609.333zM938.667 175.334v609.333l-213.333-133.333v-609.333z" />
<glyph unicode="&#xe600;" d="M641.291 539.006l-74.819 391.093h149.637z" horiz-adv-x="1449" />
<glyph unicode="&#xe601;" d="M307.171 539.006l-74.815 391.093h149.633z" horiz-adv-x="1449" />
<glyph unicode="&#xe602;" d="M465.579 693.177l-68.016-419.437h146.238z" horiz-adv-x="1449" />
<glyph unicode="&#xe603;" d="M21.205 929.814l155.305-656.074h-155.305z" horiz-adv-x="1449" />
<glyph unicode="&#xe604;" d="M811.332 664.692l74.819-391.093h-149.637z" horiz-adv-x="1449" />
<glyph unicode="&#xe605;" d="M1145.449 664.692l74.819-391.093h-149.637z" horiz-adv-x="1449" />
<glyph unicode="&#xe606;" d="M987.041 510.522l68.016 419.437h-146.234z" horiz-adv-x="1449" />
<glyph unicode="&#xe607;" d="M1431.414 273.881l-155.305 656.077h155.305z" horiz-adv-x="1449" />
<glyph unicode="&#xe608;" d="M21.205-7.804v157.353h54.542c21.245 0 37.021-3.154 47.32-9.461 10.303-6.307 15.454-16.123 15.454-29.449 0-8.739-2.214-16.198-6.64-22.379s-10.252-10.158-17.488-11.932v-1.113c9.497-2.615 16.379-6.972 20.638-13.074 4.263-6.102 6.391-14.017 6.391-23.749 0-14.32-5.321-25.598-15.964-33.835-10.642-8.24-25.143-12.358-43.509-12.358l-60.744-0.004zM63.934 90.25h12.767c12.727 0 19.092 4.794 19.092 14.389 0 8.489-6.651 12.734-19.952 12.734h-11.907v-27.123zM63.934 25.24h14.916c13.233 0 19.851 5.563 19.851 16.683 0 5.202-1.774 9.194-5.31 11.975-3.54 2.782-8.674 4.169-15.396 4.169h-14.056l-0.004-32.827z" horiz-adv-x="1449" />
<glyph unicode="&#xe609;" d="M152.729-7.804l51.337 158.004h56.724l51.984-158.004h-46.497l-7.749 29.489h-51.124l-7.966-29.489h-46.71zM216.234 56.56h33.473l-6.781 25.833c-5.166 18.655-8.576 32.614-10.223 41.865-1.94-10.906-7.431-33.47-16.469-67.698z" horiz-adv-x="1449" />
<glyph unicode="&#xe60a;" d="M329.782-7.804v157.353h42.729v-58.335h49.401v58.335h42.729v-157.353h-42.729v64.151h-49.401v-64.151h-42.729z" horiz-adv-x="1449" />
<glyph unicode="&#xe60b;" d="M482.511 27.068h13.225c9.526 15.931 17.38 34.351 23.561 55.268s10.166 43.325 11.961 67.218h104.734v-122.486h22.17v-83.843h-42.082v48.971h-91.487v-48.971h-42.082v83.843zM541.142 27.068h52.118v87.614h-27.939c-2.941-30.677-10.996-59.877-24.178-87.614z" horiz-adv-x="1449" />
<glyph unicode="&#xe60c;" d="M678.074-7.804v157.353h93.423v-34.333h-50.694v-24.327h46.926v-34.333h-46.926v-29.492h50.694v-34.871l-93.423 0.004z" horiz-adv-x="1449" />
<glyph unicode="&#xe60d;" d="M799.049-7.804v157.353h54.357c19.836 0 34.734-4.342 44.69-13.019 9.952-8.684 14.934-21.429 14.934-38.228 0-16.802-5.151-30.024-15.458-39.662-10.303-9.642-24.944-14.457-43.917-14.457h-11.874v-51.988h-42.732zM841.778 79.055h7.724c6.362 0 11.416 1.795 15.169 5.383s5.628 8.54 5.628 14.855c0 10.621-5.863 15.931-17.586 15.931h-10.935v-36.168z" horiz-adv-x="1449" />
<glyph unicode="&#xe60e;" d="M938.326-7.804v157.353h56.536l32.838-111.738 0.925 0.018 32.184 111.72h55.322v-157.353h-37.671v68.992c0 8.106 0 22.817 0 44.127l1.358-0.206-31.631-112.912h-41.302l-32.18 113.335h-0.972c1.51-19.302 2.261-34.297 2.261-44.99v-68.345h-37.668z" horiz-adv-x="1449" />
<glyph unicode="&#xe60f;" d="M1151.427-7.804v157.353h93.423v-34.333h-50.694v-24.327h46.93v-34.333h-46.93v-29.492h50.694v-34.871l-93.423 0.004z" horiz-adv-x="1449" />
<glyph unicode="&#xe610;" d="M1256.262 27.068h13.225c9.53 15.931 17.38 34.351 23.561 55.268s10.169 43.325 11.961 67.218h104.734v-122.486h22.174v-83.843h-42.086v48.971h-91.487v-48.971h-42.082v83.843zM1314.897 27.068h52.118v87.614h-27.939c-2.941-30.677-10.996-59.877-24.178-87.614z" horiz-adv-x="1449" />
<glyph unicode="&#xe611;" d="M344.012 790.601c0.209 0.865 0.344 1.479 0.388 1.8l1.042 7.559-47.349 0.267c-42.779 0.242-55.87-0.007-57.047-1.084-0.565-0.516-15.333-56.633-41.655-158.273-12.556-48.484-23.124-87.206-23.487-86.051s-15.391 56.498-33.397 122.98c-18.006 66.482-33.104 121.243-33.55 121.692-0.623 0.623-57.98 0.9-104.417 0.502-6.735-0.056-10.477 13.11 60.021-211.133 9.759-31.041 24.371-74.997 32.469-97.679 9.333-26.141 15.989-46.323 20.534-63.173 8.038-32.067 8.319-52.163 6.565-75.625-2.026-27.101-2.321-218.438-0.342-221.638 1.512-2.449 91.223-3.589 99.712-1.268 1.358 0.372 2.265 1.691 2.87 8.928 2.119 6.219 2.286 30.969 2.286 133.744v131.281l5.742 18.112c3.756 11.849 13.201 42.995 20.989 69.22 7.789 26.222 17.21 57.619 20.938 69.771 33.834 110.319 66.14 218.831 66.994 225.011l0.693 5.056zM846.122 631.349l-0.021-6.838-1.065-0.014-0.595-188.993-0.577-183.227-14.666-14.929c-16.424-16.719-29.585-23.101-41.488-20.113-12.963 3.254-12.64-1.8-13.722 214.768l-0.998 199.347h-94.316v-6.851h-1.086v-216.289c0-231.737-0.007-231.599 11.752-254.875 9.366-18.536 23.010-27.559 46.391-30.671h0.002c30.79-4.1 64.001 9.849 94.77 39.809l13.373 13.022v-22.445c0-19.396 0.554-22.601 4.070-23.58 5.756-1.605 77.173-1.707 84.89-0.126l6.396 1.314v6.628l1.086 0.223v495.098l-94.195-1.258zM606.892 533.67c-8.935 38.341-25.68 64.115-53.233 81.939-43.281 27.999-92.718 30.957-138.586 8.291-33.425-16.515-54.951-43.914-66.071-84.083-1.326-4.786-2.298-8.812-3.033-14.815-2.83-14.184-3.163-35.351-3.889-133.951-1.121-151.928 0.616-170.003 19.643-204.51 18.664-33.848 57.403-58.661 99.572-63.782 12.696-1.54 38.43 0.858 53.23 4.961 33.632 9.326 65.864 35.906 80.118 66.078 6.158 13.033 9.875 22.096 12.115 38.651 4.175 22.617 4.47 59.175 4.47 152.375-0.002 118.875-0.379 131.862-4.337 148.847zM499.34 223.997c-7.907-6.028-21.734-8.649-32.983-6.249-8.656 1.847-20.338 15.419-23.934 27.801-4.479 15.436-4.823 229.985-0.954 272.059 6.379 21.054 24.19 32.050 43.635 26.813 15.157-4.082 22.915-13.575 27.336-33.457 3.282-14.754 3.67-33.129 2.972-141.26-0.46-71.701-0.716-106.742-3.058-125.553-2.382-11.87-6.319-15.047-13.015-20.154zM2300.389 425.863h45.57l-0.726 41.281c-0.705 37.869-1.263 42.2-6.324 52.472-7.982 16.21-19.759 23.401-38.446 23.401-22.448 0-36.678-10.849-43.388-33.141-2.858-9.486-5.863-74.685-3.707-80.308 1.205-3.144 7.724-3.705 47.021-3.705zM1995.795 519.763c-6.077 12.247-17.385 18.278-30.525 17.806-10.221-0.365-21.561-4.677-32.488-13.010l-8.14-6.177v-296.598l8.14-6.177c18.429-14.052 38.674-17.031 52.619-7.703 5.519 3.691 9.117 8.779 11.919 16.861 3.647 10.524 3.965 24.003 3.489 148.772-0.495 130.043-0.781 137.702-5.014 146.226zM2560.878 653.367c-9.080 108.842-16.303 144.165-38.751 189.544-29.729 60.101-72.692 91.788-133.876 98.747-47.309 5.379-225.315 12.97-390.044 16.631-285.188 6.338-754.057-5.858-813.939-21.173-27.673-7.077-48.426-19.11-70.022-40.604-37.844-37.662-60.391-91.679-69.452-166.396-20.692-170.606-21.134-376.727-1.188-553.515 8.577-76.041 26.243-125.443 59.41-166.159 20.694-25.406 56.352-46.998 88.26-53.442 22.385-4.523 134.42-10.798 297.605-16.668 24.306-0.874 88.667-2.379 143.030-3.344 113.301-2.012 321.627-0.821 440.719 2.519 80.127 2.249 226.201 8.172 253.5 10.282 7.677 0.593 25.469 1.728 39.537 2.523 47.277 2.67 77.353 12.568 105.596 34.76 36.553 28.718 64.857 81.795 76.815 144.037 11.314 58.894 18.887 163.773 20.422 282.851 1.284 99.491-0.426 153.175-7.621 239.409zM1425.273 692.808l-52.982-0.654-2.326-565.143-45.932-0.581c-35.525-0.488-46.307 0.044-47.167 2.326-0.616 1.626-1.356 129.020-1.672 283.153l-0.581 280.246-103.493 1.307v88.304l305.829-1.235 1.307-87.069-52.982-0.654zM1750.216 368.883v-243.035h-83.725v25.583c0 19.247-0.735 25.583-2.979 25.583-1.64 0-9.226-6.344-16.861-14.098-16.557-16.817-36.171-30.367-52.91-36.63-34.662-12.968-67.589-5.4-81.618 18.75-12.838 22.11-13.082 27.052-13.082 256.335v210.547h83.653l0.654-198.265c0.623-194.821 0.714-198.393 5.377-206.333 6.182-10.521 15.608-13.347 30.597-9.231 8.817 2.423 14.836 6.707 29.143 20.931l18.024 17.952v374.946h83.725v-243.035zM2076.757 160.59c-7.372-16.424-23.806-32.509-37.283-36.485-35.167-10.382-63.375-1.923-95.935 28.708-10.103 9.505-19.51 17.224-20.931 17.224-1.712 0-2.616-7.449-2.616-22.094v-22.094h-83.725v655.845h83.725v-106.982c0-58.84 0.786-106.982 1.744-106.982s9.789 7.807 19.624 17.298c22.629 21.841 41.548 31.399 65.557 33.213 42.811 3.24 68.327-18.794 80.018-69.117 3.647-15.696 3.998-33.625 3.998-179.078-0.002-177.178-0.021-177.918-14.175-209.457zM2430.99 257.832c-0.744-18.226-2.954-39.137-4.942-46.514-11.642-43.167-42.635-73.731-87.432-86.269-60.315-16.878-126.704 10.777-153.205 63.812-14.875 29.769-15.408 35.706-15.408 181.185 0 118.617 0.419 133.171 4.214 149.354 10.747 45.788 37.392 75.422 82.49 91.865 13.068 4.765 26.708 7.207 40.337 7.486 48.672 0.998 96.984-25.18 117.229-67.808 13.659-28.76 15.35-41.060 16.717-122.099l1.235-72.678-178.497-1.235-0.654-48.84c-0.93-68.901 3.716-90.088 22.313-102.621 15.645-10.54 39.679-9.745 52.765 1.744 12.263 10.768 15.726 22.336 16.933 56.107l1.091 29.653h86.195l-1.381-33.143z" horiz-adv-x="2569" />
<glyph unicode="&#xe612;" d="M1024 765.582c-37.676-16.708-78.164-28.002-120.66-33.080 43.372 26 76.686 67.17 92.372 116.23-40.596-24.078-85.556-41.56-133.41-50.98-38.32 40.83-92.922 66.34-153.346 66.34-116.022 0-210.088-94.058-210.088-210.078 0-16.466 1.858-32.5 5.44-47.878-174.6 8.764-329.402 92.4-433.018 219.506-18.084-31.028-28.446-67.116-28.446-105.618 0-72.888 37.088-137.192 93.46-174.866-34.438 1.092-66.832 10.542-95.154 26.278-0.020-0.876-0.020-1.756-0.020-2.642 0-101.788 72.418-186.696 168.522-206-17.626-4.8-36.188-7.372-55.348-7.372-13.538 0-26.698 1.32-39.528 3.772 26.736-83.46 104.32-144.206 196.252-145.896-71.9-56.35-162.486-89.934-260.916-89.934-16.958 0-33.68 0.994-50.116 2.94 92.972-59.61 203.402-94.394 322.042-94.394 386.422 0 597.736 320.124 597.736 597.744 0 9.108-0.206 18.168-0.61 27.18 41.056 29.62 76.672 66.62 104.836 108.748z" />
<glyph unicode="&#xe613;" d="M995.828-35.826c-37.566-37.564-98.45-37.564-136.016 0l-169.726 169.726c-69.776-44.764-152.26-71.434-241.318-71.434-247.83 0-448.768 200.908-448.768 448.768s200.938 448.766 448.768 448.766c247.862 0 448.768-200.904 448.768-448.766 0-89.028-26.704-171.542-71.436-241.352l169.728-169.726c37.562-37.564 37.562-98.418 0-135.982zM448.768 831.782c-177.022 0-320.548-143.494-320.548-320.546s143.526-320.548 320.548-320.548c177.052 0 320.548 143.496 320.548 320.548s-143.496 320.546-320.548 320.546z" />
<glyph unicode="&#xe614;" d="M256 320h512v-128h-512zM256 512h512v-128h-512zM960 960h-896c-35.376 0-64-28.624-64-64v-896c0-35.376 28.624-64 64-64h896c35.376 0 64 28.624 64 64v896c0 35.376-28.624 64-64 64zM896 64h-768v768h768v-768zM256 704h512v-128h-512z" />
<glyph unicode="&#xe615;" d="M929.536 445.472c-0.224-0.096-0.448-0.224-0.576-0.224 0-0.16 0-0.384 0-0.512-66.304-34.24-127.008-47.84-181.568-47.84-82.592 0-151.104 31.2-203.744 69.728-0.32 0.224-0.736 0.512-0.992 0.8l95.744 362.752c30.272-25.824 98.752-74.144 202.528-74.144 52.256 0 113.312 12.224 183.040 45.568l-94.432-356.128zM300.256 586.56c-0.864 0-1.696 0-2.592 0-49.536 0-108.48-14.368-181.184-46.848l93.376 358.912c70.752 31.584 128.32 44.32 176.32 45.344 0.352 0 0.704 0 1.088 0 28.224 0 53.728-3.68 76.288-9.536 47.232-13.184 115.136-57.696 115.136-57.696v-0.256c-19.456-72.96-77.056-289.152-96.48-361.152-50.688 36.768-105.152 70.368-181.952 71.232zM264.16 499.104c6.144 0.576 12.256 0.768 18.368 0.768 53.888 0 103.072-20.64 138.368-40.448 15.104-8.896 29.376-18.592 43.552-28.224-12.544-47.072-78.656-294.112-98.112-366.336-52.448 38.208-108.032 72.128-188.192 72.128-48.672 0-106.528-12.64-178.112-44.256l94.784 359.744c10.784 4.8 21.312 9.216 31.52 13.248 34.56 13.312 83.776 28.416 137.824 33.376zM726.016 312.8c50.304 0 109.856 10.176 178.944 37.28l-91.072-348.48c-78.528-35.456-141.312-49.568-193.824-49.568-82.976 0-193.568 74.656-193.44 74.56l94.496 359.168c28.768-25.12 95.36-72.96 204.896-72.96z" />
<glyph unicode="&#xe616;" d="M704 320c-64-64-64-128-128-128s-128 64-192 128-128 128-128 192 64 64 128 128-128 256-192 256-192-192-192-192c0-128 131.5-387.5 256-512s384-256 512-256c0 0 192 128 192 192s-192 256-256 192z" />
<glyph unicode="&#xe617;" d="M1017.378 384.006c8.004-55.482 13.216-131.392-11.664-160.446-41.142-48.044-301.712-48.044-301.712 48.042 0 48.398 42.856 80.134 1.712 128.178-40.472 47.262-113.026 48.030-193.714 48.042-80.686-0.012-153.242-0.78-193.714-48.042-41.142-48.046 1.714-79.78 1.714-128.178 0-96.086-260.57-96.086-301.714-48.044-24.878 29.054-19.668 104.964-11.662 160.446 6.16 37.038 21.724 76.996 71.548 127.994 0 0.002 0.002 0.002 0.002 0.004 74.738 69.742 187.846 126.738 429.826 127.968v0.030c1.344 0 2.664-0.010 4-0.014 1.338 0.004 2.656 0.014 4 0.014v-0.028c241.98-1.23 355.088-58.226 429.826-127.968 0.002-0.002 0.002-0.004 0.002-0.004 49.824-50.996 65.39-90.954 71.55-127.994z" />
<glyph unicode="&#xe618;" d="M512 960c-176.732 0-320-143.268-320-320 0-320 320-704 320-704s320 384 320 704c0 176.732-143.27 320-320 320zM512 448c-106.040 0-192 85.96-192 192s85.96 192 192 192 192-85.96 192-192-85.96-192-192-192z" />
<glyph unicode="&#xe619;" d="M512 960c-176.732 0-320-143.268-320-320 0-320 320-704 320-704s320 384 320 704c0 176.732-143.27 320-320 320zM512 444c-108.248 0-196 87.752-196 196s87.752 196 196 196 196-87.752 196-196-87.752-196-196-196zM388 640c0 68.483 55.517 124 124 124s124-55.517 124-124c0-68.483-55.517-124-124-124s-124 55.517-124 124z" />
<glyph unicode="&#xe61a;" d="M512 960c-282.77 0-512-229.23-512-512s229.23-512 512-512 512 229.23 512 512-229.23 512-512 512zM512 32c-229.75 0-416 186.25-416 416s186.25 416 416 416 416-186.25 416-416-186.25-416-416-416zM384 704c-35.346 0-64-28.654-64-64s28.654-64 64-64h165.488l-274.742-274.744c-24.994-24.994-24.994-65.518 0-90.512 12.496-12.496 28.876-18.744 45.254-18.744s32.758 6.248 45.254 18.744l274.746 274.746v-165.49c0-35.346 28.654-64 64-64s64 28.654 64 64v384h-384z" />
<glyph unicode="&#xe61b;" d="M512 960c-282.77 0-512-229.23-512-512s229.23-512 512-512 512 229.23 512 512-229.23 512-512 512zM512 32c-229.75 0-416 186.25-416 416s186.25 416 416 416 416-186.25 416-416-186.25-416-416-416zM813.256 493.254l-256.002 256c-24.992 24.994-65.514 24.994-90.508 0s-24.994-65.516 0-90.51l146.744-146.744h-357.49c-35.346 0-64-28.654-64-64s28.654-64 64-64h357.49l-146.746-146.744c-24.994-24.994-24.994-65.518 0-90.512 12.498-12.496 28.878-18.744 45.256-18.744s32.758 6.248 45.254 18.744l256.002 256c24.992 24.994 24.992 65.518 0 90.51z" />
<glyph unicode="&#xe61c;" d="M512-64c-282.77 0-512 229.23-512 512s229.23 512 512 512 512-229.23 512-512-229.23-512-512-512zM512 864c-229.75 0-416-186.25-416-416s186.25-416 416-416 416 186.25 416 416-186.25 416-416 416zM384 192c-35.346 0-64 28.654-64 64s28.654 64 64 64h165.488l-274.742 274.744c-24.994 24.994-24.994 65.518 0 90.512 12.496 12.496 28.876 18.744 45.254 18.744s32.758-6.248 45.254-18.744l274.746-274.746v165.49c0 35.346 28.654 64 64 64s64-28.654 64-64v-384h-384z" />
<glyph unicode="&#xe61d;" d="M789.534 896c0 0-200.956 0-267.94 0-120.122 0-233.17-91.006-233.17-196.422 0-107.726 81.882-194.666 204.088-194.666 8.498 0 16.756 0.17 24.84 0.752-7.928-15.186-13.6-32.288-13.6-50.042 0-29.938 16.104-54.21 36.468-74.024-15.386 0-30.242-0.448-46.452-0.448-148.782 0.002-263.3-94.76-263.3-193.022 0-96.778 125.542-157.312 274.334-157.312 169.624 0 263.306 96.244 263.306 193.028 0 77.602-22.896 124.072-93.686 174.134-24.216 17.142-70.532 58.836-70.532 83.344 0 28.72 8.196 42.868 51.428 76.646 44.312 34.624 75.674 83.302 75.674 139.916 0 67.406-30.022 133.098-86.374 154.772h84.956l59.96 43.344zM695.948 240.542c2.126-8.972 3.284-18.208 3.284-27.628 0-78.2-50.39-139.31-194.974-139.31-102.842 0-177.116 65.104-177.116 143.3 0 76.642 92.126 140.444 194.964 139.332 24-0.254 46.368-4.116 66.668-10.69 55.828-38.828 95.876-60.76 107.174-105.004zM531.286 532.224c-69.038 2.064-134.636 77.226-146.552 167.86-11.916 90.666 34.37 160.042 103.388 157.99 69.008-2.074 134.636-74.814 146.558-165.458 11.906-90.66-34.39-162.458-103.394-160.392z" />
<glyph unicode="&#xe61e;" d="M559.066 896c0 0-200.956 0-267.94 0-120.12 0-233.17-91.006-233.17-196.422 0-107.726 81.882-194.666 204.088-194.666 8.498 0 16.756 0.17 24.842 0.752-7.93-15.186-13.602-32.288-13.602-50.042 0-29.938 16.104-54.21 36.468-74.024-15.386 0-30.242-0.448-46.452-0.448-148.782 0.002-263.3-94.758-263.3-193.020 0-96.778 125.542-157.314 274.334-157.314 169.624 0 263.306 96.244 263.306 193.028 0 77.6-22.896 124.072-93.686 174.134-24.216 17.144-70.53 58.836-70.53 83.344 0 28.72 8.196 42.868 51.428 76.646 44.312 34.624 75.672 83.302 75.672 139.916 0 67.406-30.020 133.098-86.372 154.772h84.954l59.96 43.344zM465.48 240.542c2.126-8.972 3.284-18.206 3.284-27.628 0-78.2-50.392-139.31-194.974-139.31-102.842 0-177.116 65.104-177.116 143.3 0 76.642 92.126 140.444 194.964 139.332 24-0.254 46.368-4.116 66.67-10.69 55.826-38.826 95.876-60.762 107.172-105.004zM300.818 532.224c-69.038 2.064-134.636 77.226-146.552 167.86-11.916 90.666 34.37 160.042 103.388 157.99 69.010-2.074 134.638-74.814 146.558-165.458 11.906-90.66-34.39-162.458-103.394-160.392zM832 704v192h-64v-192h-192v-64h192v-192h64v192h192v64z" />
<glyph unicode="&#xe61f;" d="M575.87-64h-191.87v512h-128v176.45l128 0.058-0.208 103.952c0 143.952 39.034 231.54 208.598 231.54h141.176v-176.484h-88.23c-66.032 0-69.206-24.656-69.206-70.684l-0.262-88.324h158.69l-18.704-176.45-139.854-0.058-0.13-512z" />
<glyph unicode="&#xe620;" d="M512 960c282.77 0 512-229.23 512-512 0-261.094-195.438-476.53-448-508.026v380.026h176l16 128h-192v64c0 35.346 28.654 64 64 64h128v128h-128c-106.040 0-192-85.96-192-192v-64h-96v-128h96v-380.026c-252.562 31.496-448 246.932-448 508.026 0 282.77 229.23 512 512 512z" />
<glyph unicode="&#xe621;" d="M768 460.749c0-15.309-15.616-26.317-15.616-26.317l-438.323-271.514c-31.949-20.941-58.061-5.427-58.061 34.253v527.206c0 39.782 26.112 55.194 58.112 34.304l438.323-271.616c-0.051 0 15.565-11.008 15.565-26.317z" />
<glyph unicode="&#xe622;" d="M473.498 378.829c23.040-16.026 53.76-16.026 76.8 0l465.306 270.387c12.083 8.397 10.752 26.522-2.458 33.075l-471.296 181.094c-18.842 9.37-41.062 9.37-59.904 0l-471.296-181.094c-13.21-6.502-14.541-24.678-2.458-33.075l465.306-270.387zM1013.146 419.277l-127.283 63.13-293.12-170.342c-24.013-15.821-51.917-24.115-80.845-24.115s-56.832 8.346-80.845 24.115l-292.915 170.445-127.488-63.181c-13.21-6.554-14.541-24.678-2.458-33.075l465.306-323.021c23.040-16.026 53.76-16.026 76.8 0l465.306 323.021c12.083 8.346 10.752 26.47-2.458 33.024z" />
<glyph unicode="&#xe623;" d="M286.822-40.96c-66.202 0-128.205 28.416-172.954 73.728-86.784 87.859-110.95 241.203 10.701 364.339 71.219 72.090 356.659 361.114 499.098 505.344 50.586 51.2 114.944 71.014 176.538 54.272 60.57-16.384 110.131-66.611 126.362-127.898 16.486-62.464-3.021-127.642-53.555-178.842l-477.338-483.328c-27.238-27.597-58.061-43.93-88.986-47.206-30.669-3.277-59.904 6.656-80.384 27.392-37.069 37.683-42.394 108.39 19.354 170.854l335.258 339.456c13.773 13.926 36.096 13.926 49.869 0s13.773-36.557 0-50.483l-335.309-339.507c-28.979-29.286-31.642-57.293-19.302-69.837 5.427-5.427 13.619-7.936 23.091-6.861 14.49 1.485 31.027 11.059 46.541 26.675l477.338 483.277c32.768 33.178 45.312 72.192 35.328 109.824-9.83 37.12-39.834 67.482-76.442 77.466-37.171 10.086-75.776-2.662-108.544-35.84-142.438-144.282-427.827-433.254-499.098-505.344-92.979-94.157-70.707-202.547-10.701-263.322 60.058-60.774 167.014-83.405 260.045 10.854l499.098 505.344c13.773 13.926 36.096 13.926 49.869 0s13.773-36.557 0-50.534l-499.098-505.344c-58.829-59.494-124.723-84.48-186.778-84.48z" />
<glyph unicode="&#xe624;" d="M848.589 136.294c-38.758 53.811-145.971 195.789-233.984 312.627 35.635 51.149 64.051 92.928 77.056 114.79 79.104 132.813 44.749 218.112 1.126 290.304-43.725 72.243-50.637 113.971-180.787 113.971-130.202 0-137.114-41.728-180.787-114.022-43.725-72.192-78.029-157.491 1.075-290.304 13.005-21.811 41.421-63.642 77.107-114.79-88.064-116.787-195.277-258.816-234.035-312.627-9.011-12.493-8.192-33.997 0.461-55.398 6.656-16.486 32.256-90.214 38.502-105.677 7.987-19.917 33.997-34.304 55.398-4.71 12.339 17.101 132.198 180.48 242.278 333.926 110.029-153.395 229.939-316.826 242.278-333.926 21.35-29.594 47.411-15.206 55.398 4.71 6.246 15.514 31.846 89.19 38.502 105.677 8.55 21.453 9.421 42.957 0.41 55.45zM493.261 611.174c-54.682 75.981-93.798 164.403-93.798 164.403s21.504 38.81 112.538 38.81c91.034 0 112.538-38.81 112.538-38.81s-39.219-88.422-93.85-164.403c-4.506-6.195-11.162-15.206-18.688-25.446-7.629 10.24-14.285 19.251-18.739 25.446z" />
<glyph unicode="&#xe625;" d="M129.997-51.2h177.203l71.987 189.338-151.859 51.405-97.331-240.742zM644.813 138.138l71.987-189.338h177.203l-97.331 240.742-151.859-51.405zM921.6 870.4h-332.8l-25.6 102.4h-102.4l-25.6-102.4h-332.8c-28.314 0-51.2-22.886-51.2-51.2v-563.2c0-28.262 22.886-51.2 51.2-51.2h819.2c28.314 0 51.2 22.938 51.2 51.2v563.2c0 28.262-22.886 51.2-51.2 51.2z" />
<glyph unicode="&#xe626;" d="M141.466 278.374c-77.568-76.186-12.032-154.419-115.046-270.285-46.49-52.378 191.386-36.403 309.197 79.411 50.022 49.203 35.891 120.781-17.715 173.517-53.606 52.634-126.464 66.56-176.435 17.357zM1000.397 939.059c-39.731 39.117-480.205-313.805-611.277-442.675-65.075-64-86.784-98.304-106.701-123.904-8.704-11.213 2.816-14.592 7.885-17.203 25.805-13.21 43.827-25.395 67.123-48.282 23.347-22.886 35.789-40.602 49.101-65.997 2.714-5.018 6.195-16.282 17.51-7.782 26.112 19.61 60.979 41.011 126.054 104.909 131.123 128.819 490.138 561.869 450.304 600.934z" />
<glyph unicode="&#xe627;" d="M747.52 921.6h-471.142c-39.373 0-71.578-32.205-71.578-71.68v-778.24c0-39.424 32.205-71.68 71.578-71.68h471.142c39.373 0 71.68 32.307 71.68 71.68v778.24c0 39.475-32.307 71.68-71.68 71.68zM358.4 358.4c35.277 0 64-22.886 64-51.2s-28.723-51.2-64-51.2c-35.328 0-64 22.886-64 51.2s28.672 51.2 64 51.2zM294.4 460.8c0 28.314 28.672 51.2 64 51.2 35.277 0 64-22.886 64-51.2s-28.723-51.2-64-51.2c-35.328 0-64 22.886-64 51.2zM358.4 204.8c35.277 0 64-22.886 64-51.2s-28.723-51.2-64-51.2c-35.328 0-64 22.886-64 51.2s28.672 51.2 64 51.2zM512 358.4c35.277 0 64-22.886 64-51.2s-28.723-51.2-64-51.2c-35.328 0-64 22.886-64 51.2s28.672 51.2 64 51.2zM448 460.8c0 28.314 28.672 51.2 64 51.2 35.277 0 64-22.886 64-51.2s-28.723-51.2-64-51.2c-35.328 0-64 22.886-64 51.2zM512 204.8c35.277 0 64-22.886 64-51.2s-28.723-51.2-64-51.2c-35.328 0-64 22.886-64 51.2s28.672 51.2 64 51.2zM665.6 358.4c35.277 0 64-22.886 64-51.2s-28.723-51.2-64-51.2c-35.328 0-64 22.886-64 51.2s28.672 51.2 64 51.2zM601.6 460.8c0 28.314 28.672 51.2 64 51.2 35.277 0 64-22.886 64-51.2s-28.723-51.2-64-51.2c-35.328 0-64 22.886-64 51.2zM665.6 204.8c35.277 0 64-22.886 64-51.2s-28.723-51.2-64-51.2c-35.328 0-64 22.886-64 51.2s28.672 51.2 64 51.2zM256 614.4v153.6h512v-153.6h-512z" />
<glyph unicode="&#xe628;" d="M512 563.2c-84.838 0-153.6-68.813-153.6-153.6s68.762-153.6 153.6-153.6c84.787 0 153.6 68.813 153.6 153.6s-68.813 153.6-153.6 153.6zM921.6 716.8h-122.88c-16.896 0-35.123 13.107-40.397 29.184l-31.795 95.283c-5.376 16.026-23.501 29.133-40.448 29.133h-348.16c-16.896 0-35.123-13.107-40.397-29.082l-31.846-95.334c-5.325-16.077-23.501-29.184-40.397-29.184h-122.88c-56.32 0-102.4-46.080-102.4-102.4v-460.8c0-56.32 46.080-102.4 102.4-102.4h819.2c56.32 0 102.4 46.080 102.4 102.4v460.8c0 56.32-46.080 102.4-102.4 102.4zM512 153.6c-141.414 0-256 114.586-256 256s114.586 256 256 256c141.363 0 256-114.586 256-256s-114.637-256-256-256zM896 552.96c-19.814 0-35.84 16.077-35.84 35.891 0 19.712 16.026 35.84 35.84 35.84s35.84-16.077 35.84-35.84c0-19.814-16.026-35.891-35.84-35.891z" />
<glyph unicode="&#xe629;" d="M512 952.32c-271.514 0-491.571-220.058-491.571-491.52 0-271.514 220.058-491.571 491.571-491.571 271.411 0 491.52 220.058 491.52 491.571 0 271.462-220.109 491.52-491.52 491.52zM511.949 71.68c-214.886 0-389.12 174.182-389.12 389.12 0 214.886 174.182 389.12 389.12 389.12 214.886 0 389.171-174.182 389.171-389.12 0-214.886-174.285-389.12-389.171-389.12zM563.2 495.104v272.896h-102.4v-319.744l-181.555-104.858 51.2-88.678 210.688 121.702c12.186 7.014 22.067 24.218 22.067 38.298v8.602l217.088 213.299c-10.138 13.875-21.043 27.085-33.126 39.219l-183.962-180.736z" />
<glyph unicode="&#xe62a;" d="M292.813 217.6c-12.083 0-24.269 4.25-33.997 12.902l-259.072 230.298 273.459 243.098c21.094 18.688 53.453 16.896 72.243-4.25s16.896-53.504-4.25-72.294l-187.341-166.554 172.954-153.702c21.146-18.79 23.040-51.149 4.25-72.294-10.086-11.418-24.166-17.203-38.246-17.203zM750.797 217.702l273.459 243.098-259.072 230.298c-21.146 18.79-53.504 16.896-72.243-4.25-18.79-21.146-16.896-53.504 4.25-72.294l172.954-153.754-187.341-166.502c-21.146-18.79-23.040-51.149-4.25-72.294 10.086-11.418 24.166-17.203 38.246-17.203 12.083 0 24.269 4.25 33.997 12.902zM511.283 145.152l102.4 614.4c4.659 27.904-14.182 54.272-42.086 58.931-28.006 4.71-54.323-14.182-58.88-42.086l-102.4-614.4c-4.659-27.904 14.182-54.272 42.086-58.931 2.867-0.461 5.632-0.666 8.448-0.666 24.576 0 46.285 17.766 50.432 42.752z" />
<glyph unicode="&#xe62b;" d="M924.672 873.421c-30.003 30.003-58.573 1.69-155.699-45.005-259.84-124.877-712.653-378.675-712.653-378.675l389.069-55.501 55.552-389.069c0 0 253.85 452.762 378.675 712.499 46.694 97.178 75.008 125.747 45.056 155.75zM831.283 773.325l-282.573-524.646-28.723 238.336 311.296 286.31z" />
<glyph unicode="&#xe62c;" d="M899.123 847.923c-73.83 73.882-129.28 62.822-129.28 62.822l-656.691-656.64-51.712-243.814 243.866 51.712 656.691 656.538c-0.051 0 11.059 55.45-62.874 129.382zM290.816 91.29l-83.149-17.92c-7.987 15.002-17.664 30.003-35.328 47.718-17.715 17.715-32.717 27.29-47.718 35.379l17.92 83.098 24.064 24.013c0 0 45.21-0.922 96.307-52.019 51.046-50.995 52.019-96.307 52.019-96.307l-24.115-23.962z" />
<glyph unicode="&#xe62d;" d="M512 952.32c-271.462 0-491.52-220.058-491.52-491.52s220.058-491.52 491.52-491.52c271.411 0 491.52 220.058 491.52 491.571 0 271.411-220.109 491.469-491.52 491.469zM512 71.731c-214.886 0-389.12 174.182-389.12 389.12s174.182 389.069 389.12 389.069c214.886 0 389.171-174.182 389.171-389.12s-174.285-389.069-389.171-389.069zM384.051 473.6c42.394 0 76.749 40.090 76.749 89.6s-34.406 89.6-76.8 89.6-76.8-40.090-76.8-89.6 34.406-89.6 76.851-89.6zM640 473.6c42.445 0 76.8 40.090 76.8 89.6s-34.406 89.6-76.8 89.6-76.8-40.141-76.8-89.6 34.406-89.6 76.8-89.6zM734.259 392.397c-18.586 9.523-41.728 2.202-51.61-16.384-1.741-3.379-44.493-81.562-170.598-81.562-125.491 0-168.499 77.466-170.65 81.51-9.626 18.688-32.358 26.317-51.405 16.845-18.944-9.523-26.624-32.563-17.152-51.558 2.56-5.069 63.898-123.597 239.206-123.597 175.36 0 236.595 118.579 239.104 123.648 9.421 18.79 1.843 41.472-16.896 51.098z" />
<glyph unicode="&#xe62e;" d="M512 952.32c-271.462 0-491.52-220.058-491.52-491.52s220.058-491.52 491.52-491.52c271.411 0 491.52 220.058 491.52 491.571 0 271.411-220.109 491.469-491.52 491.469zM512 71.731c-214.886 0-389.12 174.182-389.12 389.12 0 214.886 174.182 389.12 389.12 389.12 214.886 0 389.12-174.182 389.12-389.12s-174.234-389.12-389.12-389.12zM640 652.749c-42.394 0-76.8-40.090-76.8-89.549s34.406-89.6 76.8-89.6c42.445 0 76.8 40.090 76.8 89.6s-34.355 89.549-76.8 89.549zM384.051 473.6c42.394 0 76.749 40.090 76.749 89.6s-34.406 89.6-76.8 89.6c-42.394 0-76.8-40.090-76.8-89.6s34.406-89.6 76.851-89.6zM665.6 345.6h-307.2c-21.197 0-38.4-17.203-38.4-38.4s17.203-38.4 38.4-38.4h307.2c21.197 0 38.4 17.203 38.4 38.4 0 21.248-17.152 38.4-38.4 38.4z" />
<glyph unicode="&#xe62f;" d="M512.051 952.32c-271.514 0-491.571-220.058-491.571-491.52 0-271.514 220.058-491.571 491.571-491.571 271.411 0 491.52 220.058 491.52 491.571-0.051 271.462-220.16 491.52-491.52 491.52zM512 71.731c-214.886 0-389.12 174.182-389.12 389.12 0 214.886 174.182 389.12 389.12 389.12 214.886 0 389.12-174.182 389.12-389.12s-174.234-389.12-389.12-389.12zM640.051 473.6c42.394 0 76.8 40.090 76.8 89.6s-34.406 89.6-76.8 89.6c-42.394 0-76.8-40.090-76.8-89.6s34.355-89.6 76.8-89.6zM384.051 473.6c42.394 0 76.8 40.090 76.8 89.6s-34.406 89.6-76.8 89.6c-42.394 0-76.8-40.090-76.8-89.6s34.355-89.6 76.8-89.6zM512.102 396.8c-175.309 0-236.646-118.528-239.206-123.597-9.523-18.995-1.792-42.035 17.152-51.558 5.53-2.714 11.366-4.045 17.152-4.045 14.080 0 27.648 7.731 34.406 21.197 0.41 0.87 42.086 81.203 170.496 81.203 126.106 0 168.858-78.182 170.394-81.152 9.421-18.944 32.512-26.778 51.507-17.203 18.995 9.421 26.675 32.563 17.203 51.507-2.509 5.069-63.795 123.648-239.104 123.648z" />
<glyph unicode="&#xe630;" d="M512 747.52c-335.923 0-512-247.398-512-286.72 0-39.219 176.077-286.72 512-286.72 335.872 0 512 247.501 512 286.72 0 39.322-176.128 286.72-512 286.72zM512 240.282c-125.696 0-227.584 98.714-227.584 220.518s101.888 220.621 227.584 220.621c125.696 0 227.533-98.816 227.533-220.621s-101.837-220.518-227.533-220.518zM512 460.8c-20.838 22.886 33.946 110.285 0 110.285-62.874 0-113.818-49.408-113.818-110.285s50.944-110.285 113.818-110.285c62.822 0 113.818 49.408 113.818 110.285 0 28.006-96.102-19.405-113.818 0z" />
<glyph unicode="&#xe631;" d="M217.805-29.030c15.718 50.278 39.424 121.037 71.219 223.334 138.598 21.965 195.942-17.459 283.955 139.725-71.424-21.862-157.542 40.55-152.934 67.635 4.659 27.034 200.346-19.507 328.499 162.458-161.536-35.635-213.197 42.803-192.358 54.63 48.077 27.341 190.771 11.366 266.854 85.453 39.219 38.144 57.6 130.867 41.626 163.942-19.149 39.987-135.987 99.635-200.397 94.003-64.41-5.581-165.427-245.248-195.43-243.405-29.901 1.894-35.994 107.418 16.333 205.466-55.142-24.422-156.211-100.301-187.904-165.171-59.034-120.678 5.53-397.619-15.155-407.45-20.736-9.882-90.419 127.027-111.206 189.133-28.416-95.181-29.082-190.515 53.914-317.133-31.283-83.098-48.384-178.739-50.995-227.379-1.229-38.861 37.069-47.206 43.981-25.242z" />
<glyph unicode="&#xe632;" d="M969.011 686.899c-478.157-694.682-314.47 13.312-718.694-325.478l91.904-361.421h-103.373l-187.648 737.792 94.72 33.997c453.069 331.315 216.474-297.984 800.614-64.205 18.637 7.526 33.536-4.608 22.477-20.685z" />
<glyph unicode="&#xe633;" d="M942.336 829.491c-5.734 22.528-33.587 40.909-61.952 40.909h-736.768c-28.416 0-56.269-18.381-61.952-40.909l-10.291-61.491h881.203l-10.24 61.491zM993.894 716.8h-963.84c-17.51 0-31.181-15.053-29.542-32.512l47.258-597.453c1.946-20.173 18.944-35.635 39.219-35.635h849.971c20.326 0 37.274 15.462 39.219 35.635l47.258 597.453c1.69 17.459-12.032 32.512-29.542 32.512zM636.826 544c26.522 0 48.026-21.504 48.026-48.026s-21.504-48.026-48.026-48.026-48.026 21.555-48.026 48.077c0 26.47 21.504 47.974 48.026 47.974zM281.6 256l127.283 292.557 144.742-234.291 124.109 61.645 64.666-119.91h-460.8z" />
<glyph unicode="&#xe634;" d="M942.336 829.491c-5.734 22.528-33.587 40.909-61.952 40.909h-736.768c-28.416 0-56.269-18.381-61.952-40.909l-10.291-61.491h881.203l-10.24 61.491zM993.894 716.8h-963.84c-17.51 0-31.181-15.053-29.542-32.512l47.258-597.453c1.946-20.173 18.944-35.635 39.219-35.635h849.971c20.326 0 37.274 15.462 39.219 35.635l47.258 597.453c1.69 17.459-12.032 32.512-29.542 32.512zM409.6 256v256l224.41-128-224.41-128z" />
<glyph unicode="&#xe635;" d="M169.062 346.214c23.757-96.205 53.965-138.291 154.726-182.374 100.813-44.032 148.685-92.16 188.211-92.16 39.475 0 84.378 42.086 185.139 86.221 100.813 44.083 73.882 57.498 97.638 153.702l-282.778-137.523-342.938 172.134zM998.963 597.197l-426.24 238.694c-33.382 18.688-88.064 18.688-121.446 0l-426.291-238.694c-33.382-18.688-33.382-49.306 0-67.994l426.24-238.694c33.382-18.688 88.064-18.688 121.446 0l275.558 154.317-298.803 69.99c-11.52-2.816-24.166-4.403-37.427-4.403-53.862 0-97.485 25.907-97.485 57.907 0 32.102 43.674 58.010 97.485 58.010 41.779 0 77.312-15.718 91.136-37.581l316.518-103.885 79.309 44.39c33.331 18.637 33.331 49.254 0 67.942zM868.71 144.896c-3.328-19.712 65.69-52.122 72.243 5.478 29.645 259.686-21.299 334.387-21.299 334.387l-71.424-39.987c0 0.051 60.57-57.6 20.48-299.878z" />
<glyph unicode="&#xe636;" d="M880.128 760.064c-85.606 78.541-224.41 78.541-310.016 0l-58.112-53.35-58.163 53.35c-85.606 78.541-224.358 78.541-309.965 0-96.307-88.422-96.307-231.424 0-319.795l368.128-337.869 368.128 337.869c96.256 88.371 96.256 231.424 0 319.795z" />
<glyph unicode="&#xe637;" d="M921.6 819.2h-819.2c-28.314 0-51.2-22.886-51.2-51.2v-614.4c0-28.262 22.886-51.2 51.2-51.2h819.2c28.314 0 51.2 22.938 51.2 51.2v614.4c0 28.262-22.886 51.2-51.2 51.2zM678.4 640c35.328 0 64-28.672 64-64s-28.672-64-64-64-64 28.672-64 64 28.672 64 64 64zM204.8 256l169.677 390.093 192.973-312.422 165.427 82.176 86.323-159.846h-614.4z" />
<glyph unicode="&#xe638;" d="M972.8 870.4h-921.6c-28.314 0-51.2-22.886-51.2-51.2v-716.8c0-28.262 22.886-51.2 51.2-51.2h921.6c28.314 0 51.2 22.938 51.2 51.2v716.8c0 28.262-22.886 51.2-51.2 51.2zM921.6 153.6h-819.2v614.4h819.2v-614.4zM732.928 415.898l-165.427-82.176-193.024 312.371-169.677-390.093h614.4l-86.272 159.898zM678.4 512c35.328 0 64 28.672 64 64s-28.672 64-64 64-64-28.672-64-64 28.672-64 64-64z" />
<glyph unicode="&#xe639;" d="M876.8 656.896l-104.755 288.512c-7.731 21.299-30.464 32.614-50.637 25.19l-696.218-254.106c-20.173-7.373-30.362-30.566-22.579-51.866l110.387-304.179v162.97c0 73.626 58.778 133.478 131.072 133.478h183.962l219.392 154.010 126.925-154.010h102.451zM984.986 563.2h-740.915c-21.504 0-39.014-17.101-39.014-39.782v-482.304c0.051-22.733 17.562-41.114 39.014-41.114h740.915c21.504 0 39.014 18.381 39.014 41.114v482.304c0 22.682-17.51 39.782-39.014 39.782zM921.6 102.4h-614.4v102.4l101.581 205.722 141.722-175.923 133.018 136.294 170.906 61.696 67.174-176.589v-153.6z" />
<glyph unicode="&#xe63a;" d="M974.080 789.146c-223.027-130.867-207.053-399.667-363.315-520.96-117.606-91.29-283.546-45.056-379.494-5.786 0 0-65.024-82.074-111.667-191.488-15.616-36.71-84.173 3.738-72.141 34.816 152.474 393.472 671.232 589.773 671.232 589.773s-366.029 15.514-610.662-304.128c-6.554 73.011-17.408 270.541 172.032 391.68 256.819 164.403 746.086 36.608 694.016 6.093z" />
<glyph unicode="&#xe63b;" d="M512 869.939c-141.414 0-256-114.125-256-255.488 0-244.429 256-563.2 256-563.2s256 318.822 256 563.2c0 141.312-114.586 255.488-256 255.488zM512 473.088c-76.39 0-138.24 61.901-138.24 138.24s61.85 138.24 138.24 138.24c76.288 0 138.189-61.901 138.189-138.24s-61.901-138.24-138.189-138.24z" />
<glyph unicode="&#xe63c;" d="M991.59 45.978l-69.99 210.022h-76.8l42.65-204.8h-750.899l42.65 204.8h-76.8l-70.042-210.022c-17.766-53.453 13.722-97.178 70.042-97.178h819.2c56.32 0 87.808 43.725 69.99 97.178zM768 716.8c0 141.363-114.586 256-256 256s-256-114.637-256-256c0-244.48 256-512 256-512s256 267.52 256 512zM373.76 713.728c0 76.339 61.85 138.189 138.24 138.189s138.24-61.85 138.24-138.189c0-76.39-61.901-138.24-138.24-138.24s-138.24 61.901-138.24 138.24z" />
<glyph unicode="&#xe63d;" d="M80.589 702.157c24.986-13.414 371.098-199.373 384-206.285s29.594-10.189 46.387-10.189c16.794 0 33.485 3.277 46.387 10.189s359.014 192.87 384 206.285c25.037 13.466 48.691 65.843 2.765 65.843h-866.253c-45.926 0-22.272-52.378 2.714-65.843zM952.986 589.363c-28.416-14.797-378.214-197.069-395.622-206.182s-29.594-10.189-46.387-10.189-28.979 1.075-46.387 10.189-365.21 191.437-393.626 206.234c-19.968 10.445-19.763-1.792-19.763-11.213s0-373.402 0-373.402c0-21.504 28.979-51.2 51.2-51.2h819.2c22.221 0 51.2 29.696 51.2 51.2 0 0 0 363.93 0 373.35s0.205 21.658-19.814 11.213z" />
<glyph unicode="&#xe63e;" d="M512 768c56.525 0 102.4 45.875 102.4 102.4 0 56.576-45.875 102.4-102.4 102.4s-102.4-45.824-102.4-102.4c0-56.525 45.875-102.4 102.4-102.4zM818.074 379.75c-19.712 90.88-54.17 240.026-104.55 301.773-48.998 60.058-147.712 62.566-201.523 62.566v0c-53.811 0-152.525-2.509-201.523-62.566-50.381-61.747-84.838-210.893-104.55-301.773-10.906-50.33 59.085-68.813 77.363-18.176 27.187 75.418 48.179 138.752 94.157 191.283 24.166-148.838-65.024-407.859-70.246-552.858 0-28.262 22.938-51.2 51.2-51.2 21.811 0 40.448 13.619 47.821 32.87 23.398 81.254 105.779 307.354 105.779 307.354v0 0c0 0 82.381-226.099 105.779-307.354 7.373-19.251 26.010-32.87 47.821-32.87 28.262 0 51.2 22.938 51.2 51.2-5.222 144.998-94.413 404.019-70.246 552.806 45.978-52.531 66.97-115.866 94.157-191.283 18.227-50.586 88.269-32.102 77.363 18.227z" />
<glyph unicode="&#xe63f;" d="M1002.547 673.792c-2.202 24.013-23.654 41.114-47.104 37.376-89.19-14.234-298.291-96.768-443.443-96.768s-354.253 82.534-443.443 96.768c-23.45 3.738-44.851-13.312-47.104-37.325-7.27-78.438-21.453-287.283-21.453-318.925 0-42.496 177.766-139.878 307.2-139.878 125.542 0 151.040 139.878 204.8 139.878s79.258-139.878 204.8-139.878c129.434 0 307.2 97.382 307.2 139.878 0 31.642-14.182 240.486-21.453 318.874zM392.192 423.936c-18.074-16.282-68.352-54.784-129.587-42.752s-98.253 67.738-110.899 90.010c-3.072 5.427-2.099 12.288 2.253 16.23 18.074 16.282 68.352 54.784 129.638 42.752 61.235-12.032 98.253-67.738 110.899-90.010 3.021-5.427 2.048-12.288-2.304-16.23zM872.294 471.194c-12.595-22.323-49.613-77.978-110.899-90.010-61.235-12.032-111.565 26.47-129.587 42.752-4.403 3.942-5.325 10.803-2.304 16.23 12.595 22.323 49.613 77.978 110.899 90.010 61.235 12.032 111.565-26.47 129.587-42.752 4.403-3.942 5.376-10.803 2.304-16.23z" />
<glyph unicode="&#xe640;" d="M512 460.8c27.034 0 52.531-5.325 77.005-13.107l-311.142 466.688c-3.021 4.506-8.038 7.219-13.466 7.219h-182.067c-5.99 0-9.626-6.707-6.246-11.725l319.027-478.566c35.174 18.227 74.547 29.491 116.89 29.491zM941.67 921.6h-182.067c-5.427 0-10.445-2.714-13.466-7.219l-195.738-293.581 102.4-153.6 295.117 442.675c3.328 5.018-0.256 11.725-6.246 11.725zM512 409.6c-113.101 0-204.8-91.699-204.8-204.8s91.699-204.8 204.8-204.8 204.8 91.699 204.8 204.8c0 113.101-91.699 204.8-204.8 204.8zM620.134 198.81c3.174-3.277 2.662-8.090-1.126-10.65s-4.864-7.834-2.509-11.725c2.406-3.891 0.922-8.448-3.328-10.189s-6.4-6.656-4.864-10.957-0.87-8.448-5.325-9.267-7.629-5.171-7.014-9.677-2.611-8.090-7.168-7.936c-4.557 0.154-8.55-3.482-8.909-7.987s-4.25-7.373-8.653-6.298-9.114-1.587-10.394-5.99-5.683-6.349-9.779-4.352c-4.096 1.997-9.216 0.307-11.366-3.686s-6.861-5.018-10.496-2.202-8.96 2.253-11.878-1.229-7.731-3.482-10.701 0-8.294 4.045-11.878 1.229-8.294-1.792-10.496 2.202-7.27 5.683-11.366 3.686c-4.096-1.997-8.499 0-9.779 4.352s-5.939 7.066-10.394 5.99-8.346 1.741-8.653 6.298-4.301 8.141-8.858 8.038c-4.557-0.154-7.782 3.43-7.168 7.936s-2.56 8.858-7.014 9.677-6.912 4.966-5.325 9.267-0.666 9.216-4.864 10.957-5.683 6.298-3.328 10.189c2.406 3.891 1.28 9.165-2.509 11.725s-4.25 7.373-1.126 10.65c3.174 3.277 3.174 8.653 0 11.981s-2.662 8.090 1.126 10.65 4.864 7.834 2.509 11.725c-2.406 3.891-0.922 8.448 3.328 10.189s6.4 6.656 4.864 10.957 0.87 8.448 5.325 9.267 7.629 5.171 7.014 9.677 2.611 8.090 7.168 7.936c4.557-0.154 8.55 3.482 8.909 7.987s4.25 7.373 8.653 6.298 9.114 1.587 10.394 5.99 5.683 6.349 9.779 4.352c4.096-1.997 9.216-0.307 11.366 3.686s6.861 5.018 10.496 2.202 8.96-2.253 11.878 1.229 7.731 3.482 10.701 0 8.294-4.045 11.878-1.229 8.294 1.792 10.496-2.202 7.27-5.683 11.366-3.686c4.096 1.997 8.499 0 9.779-4.352s5.939-7.066 10.394-5.99 8.346-1.741 8.653-6.298 4.352-8.141 8.909-7.987c4.557 0.154 7.782-3.43 7.168-7.936s2.56-8.858 7.014-9.677 6.912-4.966 5.325-9.267 0.666-9.216 4.864-10.957 5.683-6.298 3.328-10.189c-2.406-3.891-1.28-9.165 2.509-11.725s4.25-7.373 1.126-10.65-3.226-8.755-0.051-12.032z" />
<glyph unicode="&#xe641;" d="M881.818 612.864c-81.101 188.723-211.558 332.288-277.555 305.51-112.077-45.619 66.765-264.397-483.686-488.090-47.565-19.405-59.597-96.666-39.68-142.95 19.866-46.182 84.89-92.211 132.454-72.909 8.243 3.379 38.451 13.107 38.451 13.107 33.946-45.619 69.478-18.586 82.125-47.514 15.155-34.816 48.077-110.49 59.29-136.192s36.608-49.51 55.040-42.496c18.381 7.014 80.998 30.822 104.96 39.885 23.962 9.114 29.645 30.515 22.323 47.309-7.885 18.176-40.243 23.501-49.51 44.698-9.216 21.094-39.373 88.986-48.026 110.387-11.776 29.082 13.261 52.787 49.664 56.525 250.573 26.214 297.421-128.614 382.72-93.901 65.894 26.88 52.48 218.061-28.57 406.63zM853.606 306.893c-14.694-5.888-113.306 71.782-176.282 218.47-63.027 146.586-55.091 280.576-40.448 286.566 14.643 5.888 110.848-87.91 173.824-234.496 63.027-146.586 57.549-264.55 42.906-270.541z" />
<glyph unicode="&#xe642;" d="M921.6 665.6v-358.4c0-56.32-46.080-102.4-102.4-102.4h-204.8v-153.6l-204.8 153.6h-204.8c-56.371 0-102.4 46.080-102.4 102.4v358.4c0 56.32 46.029 102.4 102.4 102.4h614.4c56.32 0 102.4-46.080 102.4-102.4z" />
<glyph unicode="&#xe643;" d="M839.629 581.478v-141.158c0-114.483-84.122-237.005-276.429-253.901v-135.219h133.12c11.264 0 20.48-9.216 20.48-20.48v-61.44c0-11.315-9.267-20.48-20.48-20.48h-368.64c-11.264 0-20.48 9.216-20.48 20.48v61.44c0 11.264 9.216 20.48 20.429 20.48h133.171v135.219c-192.41 16.896-276.48 139.418-276.48 253.901v141.158c0 11.315 9.216 20.48 20.48 20.48h30.72c11.264 0 20.48-9.216 20.48-20.48v-141.158c0-68.403 53.914-184.32 256-184.32 202.035 0 256 115.917 256 184.32v141.158c0 11.315 9.216 20.48 20.429 20.48h30.771c11.264 0.051 20.429-9.165 20.429-20.48zM512 358.4c120.115 0 153.6 49.408 153.6 81.92v161.69h-307.2v-161.69c0-32.512 33.382-81.92 153.6-81.92zM665.6 890.88c0 32.614-33.485 81.92-153.6 81.92-120.218 0-153.6-49.306-153.6-81.92v-217.19h307.2v217.19z" />
<glyph unicode="&#xe644;" d="M788.582 235.418l-134.502 385.792c-36.966 106.138-151.859 164.864-260.71 135.834l-101.171 196.352c-9.165 17.715-30.618 24.525-48.026 15.155-17.357-9.37-24.013-31.437-14.797-49.203l98.765-191.59c-78.694-52.224-119.603-151.245-93.645-244.429l109.517-394.035c30.822-110.694 157.696-167.117 285.235-128.102 125.901 44.186 197.12 165.734 159.334 274.227zM455.629 515.942c-37.376-12.288-77.363 8.806-89.344 47.155-12.032 38.298 8.602 79.258 45.926 91.546 37.376 12.288 77.414-8.806 89.395-47.104s-8.602-79.309-45.978-91.597z" />
<glyph unicode="&#xe645;" d="M992.666 952.064c-5.683 16.077-23.245 24.576-39.373 18.995s-24.627-23.296-19.046-39.424c47.565-136.704-46.848-238.797-118.835-293.478l-29.082 41.677c-9.779 13.978-31.642 25.6-48.64 25.805l-163.226-0.717c-16.998 0.307-42.24-7.475-56.166-17.306l-480.973-337.254c-23.296-16.384-28.928-48.486-12.646-71.885l218.573-312.73c16.384-23.296 42.547-20.48 65.894-4.198l480.973 337.306c13.824 9.779 29.798 30.874 35.43 47.002l51.098 161.024c5.632 16.077 2.202 40.602-7.578 54.579l-17.715 25.395c96.666 74.086 197.018 205.005 141.312 365.21zM768.87 472.934c-37.222-26.112-88.627-16.998-114.688 20.275-26.163 37.376-17.050 88.781 20.224 114.995 29.594 20.736 67.994 19.251 95.642-0.87-13.926-8.397-23.501-13.312-25.293-14.080-15.411-7.322-22.016-25.805-14.746-41.216 5.325-11.213 16.435-17.818 28.006-17.818 4.403 0 8.909 1.024 13.158 3.021 9.933 4.71 20.582 10.291 31.693 16.896 4.966-30.413-7.117-62.31-33.997-81.203z" />
<glyph unicode="&#xe646;" d="M76.851 665.6h870.4c29.184 0 24.422 31.13 9.882 36.198-14.592 5.069-176.282 66.202-204.493 66.202h-35.84v153.6h-409.6v-153.6h-35.789c-28.16 0-189.901-61.133-204.442-66.202s-19.302-36.198 9.882-36.198zM972.8 614.4h-921.6c-28.16 0-51.2-23.040-51.2-51.2v-256c0-28.211 23.040-51.2 51.2-51.2h116.89l-45.158-256h778.189l-45.21 256h116.89c28.211 0 51.2 22.989 51.2 51.2v256c0 28.16-22.989 51.2-51.2 51.2zM235.674 102.4l61.338 358.554h430.029l61.389-358.554h-552.755z" />
<glyph unicode="&#xe647;" d="M610.97 303.667c0 0 361.421 260.813 321.331 559.309-0.87 6.502-3.021 10.906-5.734 13.722-2.765 2.816-7.014 5.018-13.466 5.888-291.686 41.011-546.509-328.806-546.509-328.806-221.082 26.47-205.005-17.613-305.869-259.891-19.302-46.182 11.981-62.106 46.285-49.101 34.304 12.902 109.978 41.523 109.978 41.523l132.608-135.578c0 0-27.955-77.517-40.602-112.589-12.698-35.123 2.816-67.123 48.026-47.411 236.749 103.219 279.859 86.733 253.952 312.934zM662.63 606.566c-30.618 31.386-30.618 82.125 0 113.51 30.618 31.283 80.23 31.283 110.899 0 30.618-31.283 30.618-82.074 0-113.51-30.669-31.283-80.333-31.283-110.899 0z" />
<glyph unicode="&#xe648;" d="M313.498 601.6l40.499 268.8h-210.637l-88.013-230.4c-2.714-8.192-4.147-16.691-4.147-25.6 0-56.525 58.88-102.4 131.635-102.4 67.072 0 122.522 39.117 130.662 89.6zM512 512c72.704 0 131.635 45.875 131.635 102.4 0 2.099-0.154 4.198-0.256 6.195l-26.061 249.805h-210.637l-26.112-249.6c-0.102-2.099-0.205-4.198-0.205-6.4 0-56.525 58.931-102.4 131.635-102.4zM768 458.445v-202.445h-512v202.138c-22.426-8.090-47.104-12.698-73.165-12.698-9.984 0-19.661 1.178-29.235 2.509v-325.069c0-39.424 32.205-71.68 71.578-71.68h573.542c39.424 0 71.68 32.307 71.68 71.68v325.018c-9.626-1.28-19.251-2.509-29.235-2.509-25.907 0.051-50.688 4.762-73.165 13.056zM968.704 640l-88.115 230.4h-210.586l40.448-268.39c7.885-50.688 63.334-90.010 130.714-90.010 72.704 0 131.635 45.875 131.635 102.4 0 8.909-1.434 17.408-4.096 25.6z" />
<glyph unicode="&#xe649;" d="M927.795 805.325c-15.104 13.107-97.587 88.627-112.998 101.939-15.309 13.261-38.707 14.336-56.422 14.336h-492.749c-17.664 0-41.062-1.075-56.422-14.336-15.411-13.312-97.894-88.883-112.998-101.939-15.206-13.107-27.802-32.922-23.757-61.030 4.045-28.211 96.768-699.443 99.174-715.418 2.355-15.923 16.282-28.518 33.178-28.877h614.4c16.896 0.358 30.822 12.954 33.178 28.928 2.406 15.923 95.13 687.206 99.226 715.418 3.994 28.058-8.602 47.872-23.808 60.979zM512 359.782c-166.298 0-201.882 235.315-209.254 283.802h94.054c14.131-70.707 46.285-191.693 115.2-191.693s101.12 120.986 115.2 191.693h94.106c-7.424-48.486-43.008-283.802-209.306-283.802zM162.304 767.693l93.696 102.707h512l93.696-102.707h-699.392z" />
<glyph unicode="&#xe64a;" d="M512 906.24l122.266-344.166h328.294l-267.878-202.138 95.795-354.714-278.477 212.685-278.426-212.685 95.744 354.714-267.93 202.138h328.294l122.317 344.166z" />
<glyph unicode="&#xe64b;" d="M377.651 627.456c-22.886-14.080 61.286-217.19 81.818-250.266 17.92-29.133 55.962-37.99 84.89-20.173 29.082 18.022 38.144 56.013 20.224 84.992-20.326 33.178-164.096 199.578-186.931 185.446zM360.499 849.818c47.514 16.538 98.406 25.702 151.501 25.702s103.987-9.165 151.501-25.702c16.845-5.837 39.168 5.888 29.286 31.283-7.219 18.432-14.182 36.454-16.998 43.776-6.707 17.357-30.72 31.693-41.165 34.048-39.526 8.909-80.486 13.875-122.624 13.875s-83.098-4.966-122.675-13.875c-10.445-2.355-34.406-16.691-41.114-34.048-2.816-7.322-9.83-25.344-16.998-43.776-9.882-25.395 12.442-37.171 29.286-31.283zM977.818 809.677c-9.83 11.776-20.275 23.296-31.386 34.406-11.059 11.11-22.579 21.504-34.304 31.386-7.834 6.605-30.874 11.981-45.466-2.611-14.541-14.592-84.378-84.326-84.378-84.326 20.582-14.746 40.602-30.976 59.136-49.459s34.662-38.502 49.459-59.136c0 0 69.786 69.734 84.326 84.326 14.643 14.643 9.267 37.632 2.611 45.414zM512 824.32c-229.12 0-414.771-185.651-414.771-414.72 0-229.12 185.651-414.771 414.771-414.771 229.018 0 414.72 185.651 414.72 414.771 0 229.018-185.702 414.72-414.72 414.72zM512 97.229c-172.442 0-312.32 139.827-312.32 312.32s139.827 312.32 312.32 312.32c172.493 0 312.371-139.827 312.371-312.32 0-172.442-139.878-312.32-312.371-312.32z" />
<glyph unicode="&#xe64c;" d="M325.222 325.734c6.81-18.227-181.197-186.061-71.526-322.099 25.651-31.795 112.691 152.32 236.288 235.622 68.147 46.029 226.816 143.923 226.816 198.042v350.31c0 65.075-251.597 133.99-442.778 133.99-70.093 0-171.622-439.091-171.622-508.877 0-69.99 216.115-68.762 222.822-86.989zM768 330.598c33.69 0 153.6 20.48 153.6 159.898v248.218c0 139.315-119.91 154.675-153.6 154.675-33.638 0 51.2-29.286 51.2-115.712v-326.298c0-90.522-84.838-120.781-51.2-120.781z" />
<glyph unicode="&#xe64d;" d="M698.778 595.866c-6.81 18.176 181.197 186.061 71.578 322.099-25.651 31.795-112.691-152.32-236.288-235.674-68.198-45.978-226.867-143.872-226.867-197.99v-350.31c0-65.075 251.597-133.99 442.778-133.99 70.093 0 171.622 439.091 171.622 508.826 0 70.042-216.115 68.813-222.822 87.040zM256 591.002c-33.69 0-153.6-20.48-153.6-159.898v-248.218c0-139.315 119.91-154.675 153.6-154.675 33.638 0-51.2 29.286-51.2 115.712v326.298c0 90.522 84.838 120.781 51.2 120.781z" />
<glyph unicode="&#xe64e;" d="M160.512 620.032c47.77 37.12 87.398 11.52 140.288-49.715 5.939-6.912 13.926 1.178 18.483 5.12 4.506 3.994 74.291 66.816 77.722 69.683 3.379 3.021 7.475 8.653 2.099 14.95-5.478 6.298-25.293 32-38.042 48.691-92.57 121.088 253.235 203.213 200.141 204.493-27.034 0.717-135.475 1.997-151.706 0.205-65.69-6.912-148.173-68.301-189.696-96.922-54.323-37.171-74.598-58.982-77.926-62.003-15.36-13.414-2.458-44.39-30.31-68.813-29.44-25.754-47.821-6.246-64.87-21.197-8.448-7.475-32.102-25.19-38.861-31.078-6.81-5.99-8.038-16.077-1.075-24.115 0 0 64.717-71.475 70.144-77.824 5.376-6.246 20.019-11.674 29.030-3.635 9.062 7.987 32.358 28.314 36.25 31.898 3.994 3.379-2.56 44.083 18.33 60.262zM452.762 593.562c-6.144 7.117-13.773 7.322-20.326 1.485l-73.421-64.102c-5.786-5.12-6.605-14.49-1.382-20.48l424.653-483.277c9.933-11.418 27.136-12.595 38.451-2.714l49.664 41.626c11.366 9.984 12.544 27.29 2.662 38.81l-420.301 488.653zM1018.982 799.232c-3.789 25.293-16.896 20.019-23.706 9.318-6.81-10.803-36.915-56.422-49.306-77.107-12.288-20.48-42.598-60.979-99.021-20.992-58.778 41.523-38.349 70.502-28.109 90.010 10.291 19.61 41.882 74.598 46.438 81.408 4.557 6.912-0.768 26.982-18.995 18.586-18.278-8.397-129.178-52.48-144.538-115.712-15.718-64.307 13.158-121.805-43.52-178.893l-68.762-71.68 69.069-80.179 84.685 80.384c20.173 20.275 63.283 39.987 102.298 31.078 83.61-18.893 129.229 12.493 156.723 64.41 24.678 46.387 20.582 144.077 16.742 169.37zM140.237 99.686c-10.65-10.701-10.65-28.109 0-38.81l48.691-47.616c10.65-10.701 27.546-6.195 38.195 4.506l251.238 246.989-76.954 87.757-261.171-252.826z" />
<glyph unicode="&#xe64f;" d="M1024 716.8v61.491c0 22.63-18.278 40.909-40.909 40.909h-942.080c-22.682 0-41.011-18.278-41.011-40.909v-61.491h102.4v-102.4h-102.4v-102.4h102.4v-102.4h-102.4v-102.4h102.4v-102.4h-102.4v-61.389c0-22.63 18.33-41.011 41.011-41.011h942.080c22.63 0 40.909 18.381 40.909 41.011v61.389h-102.4v102.4h102.4v102.4h-102.4v102.4h102.4v102.4h-102.4v102.4h102.4zM409.6 307.2v307.2l256-153.6-256-153.6z" />
<glyph unicode="&#xe650;" d="M433.562 928.512c-222.771-37.325-392.602-231.014-392.602-464.435 0-116.019 41.984-222.106 111.565-304.179 164.915 79.821 280.166 260.403 281.037 470.579v298.035zM512.102 345.19c-29.338-121.498-116.992-225.28-226.202-294.298 67.072-36.813 144.179-57.805 226.099-57.805 82.022 0 159.13 20.992 226.202 57.805-109.21 69.018-196.813 172.8-226.099 294.298zM590.592 632.678c0-211.098 115.507-392.602 280.934-472.781 69.53 82.074 111.514 188.211 111.514 304.179 0 233.421-169.728 427.008-392.448 464.384v-295.782z" />
<glyph unicode="&#xe651;" d="M237.722 36.659c0-11.469-3.686-25.19-7.578-36.659h293.734c16.794 19.302 26.266 42.547 26.266 68.71 0 70.912-84.173 110.285-268.339 196.71l-25.907 12.083c-90.778 43.162-158.003 81.152-204.698 126.413v-225.178c9.011 1.229 18.381 2.15 28.57 2.15 153.651-0.051 157.952-142.797 157.952-144.23zM870.4 921.6h-191.386c89.498-60.314 126.31-145.51 126.31-212.070 0-112.333-94.003-148.736-139.622-148.736l-13.875-0.102c-104.755 0-158.208 63.846-158.925 189.798-6.195 4.915-35.226 23.194-120.166 23.194-100.352 0-141.978-79.002-141.978-121.293 0-49.818 27.802-105.216 229.581-173.158 344.883-115.405 344.883-269.056 344.883-404.634v-1.331c0-22.374-1.587-47.309-5.99-73.267h71.168c56.32 0 102.4 46.029 102.4 102.4v716.8c0 56.32-46.080 102.4-102.4 102.4z" />
<glyph unicode="&#xe652;" d="M955.955 356.506c6.758 31.898 10.394 65.126 10.394 99.226 0 255.283-201.216 462.285-449.382 462.285-26.163 0-51.814-2.406-76.8-6.81-40.192 26.010-87.654 41.114-138.598 41.114-143.923 0-260.608-120.013-260.608-268.134 0-49.408 13.107-95.795 35.789-135.578-5.939-30.003-9.114-61.133-9.114-92.928 0-255.283 201.216-462.285 449.28-462.285 28.211 0 55.654 2.611 82.278 7.68 36.71-20.275 78.592-31.795 123.187-31.795 143.923 0 260.608 120.013 260.608 268.083 0.051 42.854-9.728 83.251-27.034 119.142zM747.469 234.701c-20.787-30.208-51.507-54.221-91.29-71.219-39.373-16.896-86.63-25.395-140.39-25.395-64.512 0-118.63 11.622-160.922 34.714-30.208 16.794-55.091 39.475-73.984 67.482-19.046 28.416-28.723 56.525-28.723 83.61 0 16.896 6.298 31.59 18.688 43.622 12.288 11.878 28.109 18.022 46.899 18.022 15.411 0 28.774-4.813 39.578-14.182 10.342-9.011 19.2-22.426 26.317-39.578 7.987-18.79 16.691-34.611 25.856-47.104 8.806-11.981 21.504-22.118 37.632-30.003 16.282-7.885 38.298-11.878 65.28-11.878 37.12 0 67.584 8.090 90.522 24.218 22.426 15.821 33.28 34.611 33.28 57.702 0 18.278-5.683 32.614-17.408 43.878-12.186 11.674-28.416 20.89-47.923 27.187-20.429 6.502-48.179 13.619-82.483 20.992-46.592 10.291-86.17 22.477-117.709 36.198-32.256 14.080-58.214 33.69-77.21 58.214-19.2 24.73-29.030 55.91-29.030 92.518 0 34.918 10.24 66.406 30.515 93.594 20.122 26.88 49.408 47.872 87.194 62.31 37.274 14.182 81.715 21.402 131.891 21.402 40.090 0 75.418-4.813 104.806-14.182 29.594-9.523 54.579-22.323 74.189-38.093 19.814-15.923 34.509-32.922 43.725-50.483 9.318-17.92 14.080-35.584 14.080-52.787 0-16.486-6.195-31.488-18.483-44.595-12.288-13.21-27.802-19.814-46.080-19.814-16.589 0-29.696 4.198-38.707 12.39-8.397 7.578-17.203 19.61-26.829 36.71-11.213 21.914-24.781 39.219-40.346 51.302-15.104 11.878-40.346 17.92-75.059 17.92-32.205 0-58.419-6.707-77.773-19.814-18.842-12.749-27.904-27.238-27.904-44.339 0-10.598 2.97-19.405 9.011-26.88 6.4-8.090 15.411-15.104 26.778-20.992 11.776-6.144 23.91-10.957 36.096-14.438 12.493-3.584 33.485-8.806 62.208-15.718 36.403-7.987 69.786-16.998 99.277-26.675 29.952-9.882 55.808-22.016 76.902-36.096 21.504-14.49 38.605-33.024 50.637-55.091 12.134-22.221 18.278-49.613 18.278-81.408 0.051-38.144-10.547-72.806-31.386-103.219z" />
<glyph unicode="&#xe653;" d="M665.6 610.304c70.707 0 128 57.293 128 128s-57.293 128-128 128-128-57.293-128-128 57.344-128 128-128zM964.864 668.518c-183.296-130.816-267.725-107.93-350.464-105.318-57.242 2.918-76.8-15.258-76.8-55.296l0.051-307.2c0-256 431.155-175.616 264.448 253.389 85.555 49.101 157.491 124.621 198.451 174.694 21.043 31.13-1.434 63.744-35.686 39.731zM358.4 866.304c-70.707 0-128-57.293-128-128s57.293-128 128-128 128 57.293 128 128-57.344 128-128 128zM409.6 563.2c-82.739-2.611-167.168-25.498-350.464 105.318-34.253 24.013-56.73-8.602-35.686-39.68 40.96-50.125 112.896-125.594 198.451-174.694-166.707-429.005 264.448-509.389 264.448-253.389l0.051 307.2c0 39.987-19.558 58.163-76.8 55.245z" />
<glyph unicode="&#xe654;" d="M526.643 9.165c-73.165 11.878-139.93 31.078-188.262 47.258-2.355 0.768-39.987 14.438-51.558 18.944-14.234 5.478-21.658 22.067-16.23 36.352 4.403 11.52 19.405 48.589 20.429 50.893 20.48 47.104 51.2 110.234 91.904 173.005 1.485-61.594 15.206-122.829 40.499-179.507 24.576-55.142 59.853-105.267 103.219-146.944zM520.858 613.018c-142.899 291.277-460.288 280.883-510.362 150.682-38.451-99.942 129.792-338.022 516.966-166.093 0.102 0.051 0.102 0.051 0.205 0.102-1.331 2.406-5.837 12.646-6.81 15.309zM591.872 624.384c0.051 0 0.102 0.051 0.102 0.051 218.675 97.126 188.109 265.779 131.533 287.437-76.134 29.133-214.528-83.149-135.526-278.886 0.768-1.382 3.379-7.168 3.891-8.602zM993.946 411.136c-33.075 74.24-93.85 127.437-164.506 152.781-7.117 2.56-14.387 3.738-21.658 3.738-36.71 0-72.038-30.464-75.366-68.506-5.581-63.437 7.014-128.051 34.816-190.362 27.392-61.389 66.253-113.306 116.224-151.398 13.005-9.933 28.928-14.592 44.8-14.592 28.621 0 57.19 15.155 68.557 42.291 29.235 69.734 30.566 151.194-2.867 226.048zM828.006 85.043c-61.184 46.694-109.67 109.517-144.128 186.675-34.918 78.285-49.203 157.44-42.342 235.315 1.894 21.658 8.243 42.547 18.432 61.645-1.792-0.461-5.683-1.382-5.837-1.434-32.154-8.038-63.334-21.965-91.034-40.141-40.141-26.317-75.52-65.382-90.726-111.462-4.096-12.442-7.219-26.112-8.243-39.168-4.864-62.362 5.274-126.771 32.563-187.904 26.419-59.136 65.792-108.442 113.306-146.074 28.979-22.886 81.203-37.376 123.904-37.376 40.090 0 79.667 11.93 115.2 29.952 11.11 5.632 35.584 20.89 37.171 21.965-21.248 5.427-41.165 14.95-58.266 28.006z" />
<glyph unicode="&#xe655;" d="M911.462 343.142c0 0 82.79-81.766 103.27-119.603 0.563-0.819 0.819-1.434 0.922-1.792 8.346-13.978 10.394-24.934 6.298-33.024-6.912-13.363-30.31-20.070-38.246-20.634 0 0-142.234 0-146.33 0-10.189 0-31.386 2.662-57.19 20.48-19.712 13.773-39.322 36.454-58.317 58.624-28.365 32.922-52.89 61.491-77.722 61.491-3.174 0-6.246-0.512-9.216-1.536-18.79-5.939-42.65-32.717-42.65-104.038 0-22.323-17.613-35.021-29.952-35.021 0 0-63.898 0-67.021 0-22.835 0-141.722 7.987-247.142 119.142-129.178 136.090-245.197 409.088-246.323 411.494-7.219 17.664 7.936 27.29 24.32 27.29h147.763c19.814 0 26.266-11.981 30.771-22.733 5.222-12.339 24.576-61.696 56.32-117.146 51.405-90.214 82.995-126.925 108.237-126.925 4.762 0 9.267 1.178 13.517 3.584 32.973 18.125 26.829 135.885 25.293 160.154 0 4.71-0.051 52.582-16.947 75.725-12.083 16.589-32.666 23.040-45.107 25.395 3.328 4.813 10.394 12.186 19.456 16.538 22.579 11.264 63.386 12.902 103.885 12.902h22.477c43.93-0.614 55.296-3.43 71.27-7.475 32.154-7.68 32.768-28.518 29.952-99.482-0.819-20.275-1.69-43.11-1.69-69.99 0-5.734-0.256-12.134-0.256-18.637-0.973-36.403-2.253-77.414 23.45-94.259 3.277-2.048 7.117-3.174 11.11-3.174 8.909 0 35.584 0 107.93 124.16 31.744 54.835 56.32 119.501 58.010 124.365 1.434 2.714 5.734 10.342 10.957 13.414 3.994 2.458 9.318 2.867 12.083 2.867h173.824c18.944 0 31.795-2.867 34.304-10.035 4.198-11.622-0.819-47.104-80.179-154.419-13.363-17.869-25.088-33.331-35.379-46.848-71.936-94.413-71.936-99.174 4.25-170.854z" />
<glyph unicode="&#xe656;" d="M101.837 686.643c0-76.493 25.549-131.686 75.878-164.096 41.267-26.624 89.088-30.618 113.971-30.618 6.042 0 10.906 0.307 14.285 0.512 0 0-7.885-51.405 30.208-102.195h-1.741c-65.997 0-281.242-13.773-281.242-190.822 0-180.019 197.683-189.184 237.363-189.184 3.123 0 4.966 0.102 4.966 0.102 0.41 0 3.226-0.102 8.090-0.102 25.446 0 91.238 3.174 152.32 32.922 79.258 38.4 119.45 105.421 119.45 198.912 0 90.317-61.235 144.077-105.933 183.398-27.29 24.013-50.893 44.698-50.893 64.819 0 20.48 17.254 35.891 39.014 55.398 35.277 31.488 68.557 76.39 68.557 161.28 0 74.598-9.677 124.723-69.325 156.518 6.195 3.174 28.211 5.478 39.066 7.014 32.307 4.403 79.565 9.421 79.565 35.789v5.069h-235.469c-2.355-0.102-238.131-8.806-238.131-224.717zM481.946 225.178c4.506-71.987-57.088-125.082-149.606-131.789-93.952-6.912-171.264 35.379-175.77 107.315-2.202 34.611 13.005 68.403 42.752 95.386 30.157 27.29 71.578 44.186 116.634 47.514 5.325 0.307 10.598 0.614 15.872 0.614 86.989-0.051 145.869-51.149 150.118-119.040zM420.454 735.949c23.091-81.306-11.776-166.195-67.379-181.914-6.4-1.792-12.954-2.662-19.661-2.662-50.893 0-101.325 51.507-120.064 122.522-10.445 39.731-9.574 74.65 2.406 108.134 11.725 33.024 32.922 55.194 59.546 62.72 6.4 1.792 13.005 2.714 19.712 2.714 61.44 0 100.966-25.498 125.44-111.514zM819.2 563.2v153.6h-102.4v-153.6h-153.6v-102.4h153.6v-153.6h102.4v153.6h153.6v102.4h-153.6z" />
<glyph unicode="&#xe657;" d="M886.579 653.005c0.41-8.294 0.563-16.691 0.563-24.986 0-255.488-194.406-549.99-549.888-549.99-109.21 0-210.739 32-296.294 86.886 15.155-1.792 30.515-2.714 46.080-2.714 90.624 0 173.926 30.925 240.026 82.688-84.531 1.587-155.955 57.395-180.531 134.195 11.776-2.202 23.91-3.379 36.352-3.379 17.664 0 34.765 2.304 50.944 6.707-88.422 17.818-155.034 95.898-155.034 189.594 0 0.819 0 1.587 0 2.406 26.061-14.49 55.91-23.194 87.552-24.218-51.866 34.714-86.016 93.798-86.016 160.922 0 35.379 9.523 68.608 26.214 97.178 95.283-116.992 237.773-193.894 398.387-201.984-3.277 14.182-4.966 28.877-4.966 44.083 0 106.701 86.477 193.178 193.229 193.178 55.603 0 105.83-23.398 141.107-60.979 43.981 8.704 85.35 24.781 122.726 46.899-14.438-45.107-45.107-82.995-84.992-106.906 39.117 4.71 76.288 15.002 111.002 30.413-25.907-38.81-58.675-72.806-96.461-99.994z" />
<glyph unicode="&#xe658;" d="M512 855.040c-503.194 0-512-44.749-512-394.24s8.806-394.24 512-394.24 512 44.749 512 394.24-8.806 394.24-512 394.24zM676.096 443.699l-229.888-107.315c-20.122-9.318-36.608 1.126-36.608 23.347v202.138c0 22.17 16.486 32.666 36.608 23.347l229.888-107.315c20.122-9.421 20.122-24.781 0-34.202z" />
<glyph unicode="&#xe659;" d="M864 414.496l-160 64.096v128.256l160 64.128c17.696 0 32-14.368 32-32.064v-192.384c0-17.696-14.304-32.032-32-32.032zM560 638.944c-79.52 0-144 64.608-144 144.288s64.48 144.288 144 144.288 144-64.608 144-144.288c0-79.712-64.48-144.288-144-144.288zM272 638.944c-79.52 0-144 64.608-144 144.288s64.48 144.288 144 144.288 144-64.608 144-144.288c0-79.712-64.48-144.288-144-144.288zM672 638.944v-288.576h-178.624c-1.664-26.624-13.312-49.568-30.624-62.56h18.048l127.648-287.872h-31.808l-42.56 96h-85.12v-159.936h-31.904v159.936h-86.464l-43.232-96h-31.84l129.664 287.872h12.064c-17.312 12.992-28.96 35.936-30.624 62.56h-206.624v288.576h512zM417.024 277.888c-1.312 0.32-2.528 0.992-3.808 1.44l-68.224-151.424h72.032v149.984zM448.928 280.192v-152.32h70.944l-68.032 153.44c-0.928-0.448-1.888-0.736-2.912-1.12z" />
<glyph unicode="&#xe65a;" d="M575.584 864h-160v-96h160v96zM575.584 480v64h-160v-64h160zM415.584 0h160v256h-160v-256zM799.584 576l-69.984 80 69.984 80h-512l-83.2-80 83.2-80h512zM735.584 448h-512l70.016-80-70.016-80h512l84 80-84 80z" />
<glyph unicode="&#xe65b;" d="M607.136 390.336l-249.408 144c-30.592 17.696-69.76 7.2-87.424-23.392-17.664-30.624-7.168-69.76 23.424-87.424l249.376-144c30.624-17.696 69.76-7.2 87.424 23.424 17.728 30.592 7.232 69.728-23.392 87.392zM401.44 546.048l193.984-112 65.984 183.616-133.952 77.312-126.016-148.928zM258.432 74.368l185.568 225.408-83.136 48-102.432-273.408zM741.568 719.2l-166.24 96c-22.976 13.248-52.32 5.408-65.568-17.568-13.28-22.976-5.376-52.32 17.568-65.568l166.272-96c22.976-13.248 52.32-5.408 65.568 17.568s5.376 52.32-17.6 65.568z" />
<glyph unicode="&#xe65c;" d="M366.336 700.331c-33.323-33.323-33.323-87.339 0-120.661l152.96-153.003-152.96-153.003c-33.323-33.323-33.323-87.339 0-120.661 16.64-16.683 38.485-25.003 60.331-25.003s43.691 8.32 60.331 25.003l273.707 273.664-273.707 273.664c-33.28 33.323-87.381 33.323-120.661 0z" />
<glyph unicode="&#xe65d;" d="M426.667 85.334c-34.219 0-66.347 13.312-90.539 37.504-24.149 24.149-37.461 56.32-37.461 90.496s13.312 66.347 37.504 90.539l122.795 122.795-122.795 122.837c-24.192 24.149-37.504 56.32-37.504 90.496s13.312 66.347 37.504 90.539c48.341 48.299 132.651 48.341 181.035-0.043l303.829-303.829-303.872-303.829c-24.149-24.192-56.277-37.504-90.496-37.504zM426.667 682.667c-11.435 0-22.101-4.437-30.165-12.459-8.064-8.107-12.501-18.816-12.501-30.208s4.437-22.101 12.501-30.165l183.125-183.168-183.125-183.168c-8.064-8.064-12.501-18.731-12.501-30.165s4.437-22.101 12.501-30.165c16.128-16.171 44.245-16.128 60.331-0.043l243.541 243.541-243.541 243.499c-8.064 8.064-18.731 12.501-30.165 12.501z" />
<glyph unicode="&#xe65e;" d="M512 910.222c-251.333 0-455.111-203.764-455.111-455.111s203.778-455.111 455.111-455.111 455.111 203.764 455.111 455.111-203.778 455.111-455.111 455.111zM512 113.778c-188.222 0-341.333 153.125-341.333 341.333s153.111 341.333 341.333 341.333 341.333-153.125 341.333-341.333-153.111-341.333-341.333-341.333zM626.332 455.111h-85.888c-15.723 0-28.444 12.736-28.444 28.444v85.902c0 31.097-25.223 56.32-56.334 56.32h-1.111c-31.111 0-56.334-25.223-56.334-56.32v-171.804c0-31.097 25.223-56.322 56.334-56.322h171.778c31.111 0 56.334 25.223 56.334 56.322v1.14c0 31.095-25.223 56.318-56.334 56.318z" />
<glyph unicode="&#xf002;" d="M0 475.428q0 81.714 31.714 156.286t85.714 128.571 128.571 85.714 156.286 31.714 156.286-31.714 128.571-85.714 85.714-128.571 31.714-156.286q0-125.714-70.857-228l196-196q21.143-21.143 21.143-51.429 0-29.714-21.714-51.429t-51.429-21.714q-30.857 0-51.429 21.714l-196 195.429q-102.286-70.857-228-70.857-81.714 0-156.286 31.714t-128.571 85.714-85.714 128.571-31.714 156.286zM146.286 475.428q0-105.714 75.143-180.857t180.857-75.143 180.857 75.143 75.143 180.857-75.143 180.857-180.857 75.143-180.857-75.143-75.143-180.857z" horiz-adv-x="951" />
<glyph unicode="&#xf060;" d="M320 960c-177 0-320-143-320-320s160-416 320-704c160 288 320 527 320 704s-143 320-320 320zM320 512c-71 0-128 57-128 128s57 128 128 128 128-57 128-128-57-128-128-128z" horiz-adv-x="640" />
<glyph unicode="&#xf105;" d="M7.429 164.571q0 7.429 5.714 13.143l224.571 224.571-224.571 224.571q-5.714 5.714-5.714 13.143t5.714 13.143l28.571 28.571q5.714 5.714 13.143 5.714t13.143-5.714l266.286-266.286q5.714-5.714 5.714-13.143t-5.714-13.143l-266.286-266.286q-5.714-5.714-13.143-5.714t-13.143 5.714l-28.571 28.571q-5.714 5.714-5.714 13.143z" horiz-adv-x="366" />
<glyph unicode="&#xf178;" d="M0 384v109.714q0 8 5.143 13.143t13.143 5.143h713.143v128q0 12 10.857 16.571t20-2.857l219.429-200q5.714-5.714 5.714-13.143 0-8-5.714-13.714l-219.429-202.286q-9.143-8-20-3.429-10.857 5.143-10.857 16.571v128h-713.143q-8 0-13.143 5.143t-5.143 13.143z" />
</font></defs></svg>